%YAML 1.1
%TAG !u! tag:unity3d.com,2011:
--- !u!21 &2100000
Material:
  serializedVersion: 6
  m_ObjectHideFlags: 0
  m_PrefabParentObject: {fileID: 0}
  m_PrefabInternal: {fileID: 0}
  m_Name: ast4
  m_Shader: {fileID: 10511, guid: 0000000000000000f000000000000000, type: 0}
  m_ShaderKeywords: 
  m_LightmapFlags: 5
  m_CustomRenderQueue: -1
  stringTagMap: {}
  m_SavedProperties:
    serializedVersion: 2
    m_TexEnvs:
      data:
        first:
          name: _MainTex
        second:
          m_Texture: {fileID: 2800000, guid: 3b8d65f128cc7484a9c14ba4d91ea50d, type: 3}
          m_Scale: {x: 1, y: 1}
          m_Offset: {x: 0, y: 0}
    m_Floats:
      data:
        first:
          name: _Cutoff
        second: 0.29642856
      data:
        first:
          name: _Shininess
        second: 0.078125
      data:
        first:
          name: _Occlusion
        second: 0.4
      data:
        first:
          name: _SquashAmount
        second: 1
      data:
        first:
          name: _BaseLight
        second: 0.352
      data:
        first:
          name: _AO
        second: 0.35
      data:
        first:
          name: _TranslucencyViewDependency
        second: 0.7
      data:
        first:
          name: _ShadowStrength
        second: 1
    m_Colors:
      data:
        first:
          name: _Scale
        second: {r: 1, g: 1, b: 1, a: 1}
      data:
        first:
          name: _Color
        second: {r: 1, g: 1, b: 1, a: 1}
      data:
        first:
          name: _SpecColor
        second: {r: 0.5, g: 0.5, b: 0.5, a: 0}
      data:
        first:
          name: _Emission
        second: {r: 0, g: 0, b: 0, a: 0}
      data:
        first:
          name: _TranslucencyColor
        second: {r: 0.73, g: 0.85, b: 0.41, a: 1}
      data:
        first:
          name: _TreeInstanceColor
        second: {r: 1, g: 1, b: 1, a: 1}
      data:
        first:
          name: _TreeInstanceScale
        second: {r: 1, g: 1, b: 1, a: 1}
