%YAML 1.1
%TAG !u! tag:unity3d.com,2011:
--- !u!74 &7400000
AnimationClip:
  m_ObjectHideFlags: 0
  m_PrefabParentObject: {fileID: 0}
  m_PrefabInternal: {fileID: 0}
  m_Name: Splash
  serializedVersion: 6
  m_Legacy: 0
  m_Compressed: 0
  m_UseHighQualityCurve: 1
  m_RotationCurves: []
  m_CompressedRotationCurves: []
  m_EulerCurves: []
  m_PositionCurves: []
  m_ScaleCurves: []
  m_FloatCurves:
  - curve:
      serializedVersion: 2
      m_Curve:
      - time: 0.3
        value: -2048
        inSlope: 5120
        outSlope: 5120
        tangentMode: 10
      - time: 0.7
        value: -0.00012207031
        inSlope: 5120
        outSlope: 5120
        tangentMode: 10
      m_PreInfinity: 2
      m_PostInfinity: 2
      m_RotationOrder: 4
    attribute: m_AnchoredPosition.x
    path: Horizontal/Image (1)
    classID: 224
    script: {fileID: 0}
  - curve:
      serializedVersion: 2
      m_Curve:
      - time: 1
        value: -2048
        inSlope: 5119.9995
        outSlope: 5119.9995
        tangentMode: 10
      - time: 1.4
        value: -0.00024414062
        inSlope: 5119.9995
        outSlope: 5119.9995
        tangentMode: 10
      m_PreInfinity: 2
      m_PostInfinity: 2
      m_RotationOrder: 4
    attribute: m_AnchoredPosition.x
    path: Horizontal/Image
    classID: 224
    script: {fileID: 0}
  - curve:
      serializedVersion: 2
      m_Curve:
      - time: 0.7
        value: -2048
        inSlope: 4551.111
        outSlope: 4551.111
        tangentMode: 10
      - time: 1.15
        value: -0.00012207031
        inSlope: 4551.111
        outSlope: 4551.111
        tangentMode: 10
      m_PreInfinity: 2
      m_PostInfinity: 2
      m_RotationOrder: 4
    attribute: m_AnchoredPosition.x
    path: Horizontal/Image (4)
    classID: 224
    script: {fileID: 0}
  - curve:
      serializedVersion: 2
      m_Curve:
      - time: 0
        value: -2048
        inSlope: 3413.3333
        outSlope: 3413.3333
        tangentMode: 10
      - time: 0.6
        value: 0.000031189447
        inSlope: 3413.3333
        outSlope: 3413.3333
        tangentMode: 10
      m_PreInfinity: 2
      m_PostInfinity: 2
      m_RotationOrder: 4
    attribute: m_AnchoredPosition.x
    path: Horizontal/Image (2)
    classID: 224
    script: {fileID: 0}
  - curve:
      serializedVersion: 2
      m_Curve:
      - time: 0.5
        value: -2048
        inSlope: 3723.6365
        outSlope: 3723.6365
        tangentMode: 10
      - time: 1.05
        value: -0.00012207031
        inSlope: 3723.6365
        outSlope: 3723.6365
        tangentMode: 10
      m_PreInfinity: 2
      m_PostInfinity: 2
      m_RotationOrder: 4
    attribute: m_AnchoredPosition.x
    path: Horizontal/Image (3)
    classID: 224
    script: {fileID: 0}
  - curve:
      serializedVersion: 2
      m_Curve:
      - time: 0.3
        value: -320.25
        inSlope: 0
        outSlope: 0
        tangentMode: 10
      - time: 0.7
        value: -320.25
        inSlope: 0
        outSlope: 0
        tangentMode: 10
      m_PreInfinity: 2
      m_PostInfinity: 2
      m_RotationOrder: 4
    attribute: m_AnchoredPosition.y
    path: Horizontal/Image (1)
    classID: 224
    script: {fileID: 0}
  - curve:
      serializedVersion: 2
      m_Curve:
      - time: 1
        value: -603
        inSlope: 0
        outSlope: 0
        tangentMode: 10
      - time: 1.4
        value: -603
        inSlope: 0
        outSlope: 0
        tangentMode: 10
      m_PreInfinity: 2
      m_PostInfinity: 2
      m_RotationOrder: 4
    attribute: m_AnchoredPosition.y
    path: Horizontal/Image
    classID: 224
    script: {fileID: 0}
  - curve:
      serializedVersion: 2
      m_Curve:
      - time: 0.7
        value: 534
        inSlope: 0
        outSlope: 0
        tangentMode: 10
      - time: 1.15
        value: 534
        inSlope: 0
        outSlope: 0
        tangentMode: 10
      m_PreInfinity: 2
      m_PostInfinity: 2
      m_RotationOrder: 4
    attribute: m_AnchoredPosition.y
    path: Horizontal/Image (4)
    classID: 224
    script: {fileID: 0}
  - curve:
      serializedVersion: 2
      m_Curve:
      - time: 0
        value: -0.0000076293945
        inSlope: 0
        outSlope: 0
        tangentMode: 10
      - time: 0.6
        value: -0.0000076293945
        inSlope: 0
        outSlope: 0
        tangentMode: 10
      m_PreInfinity: 2
      m_PostInfinity: 2
      m_RotationOrder: 4
    attribute: m_AnchoredPosition.y
    path: Horizontal/Image (2)
    classID: 224
    script: {fileID: 0}
  - curve:
      serializedVersion: 2
      m_Curve:
      - time: 0.5
        value: 593
        inSlope: 0.909091
        outSlope: 0.909091
        tangentMode: 10
      - time: 1.05
        value: 593.5
        inSlope: 0.909091
        outSlope: 0.909091
        tangentMode: 10
      m_PreInfinity: 2
      m_PostInfinity: 2
      m_RotationOrder: 4
    attribute: m_AnchoredPosition.y
    path: Horizontal/Image (3)
    classID: 224
    script: {fileID: 0}
  - curve:
      serializedVersion: 2
      m_Curve:
      - time: 0.1
        value: -1536
        inSlope: 2194.2856
        outSlope: 2194.2856
        tangentMode: 10
      - time: 0.8
        value: 0
        inSlope: 2194.2856
        outSlope: 2194.2856
        tangentMode: 10
      m_PreInfinity: 2
      m_PostInfinity: 2
      m_RotationOrder: 4
    attribute: m_AnchoredPosition.y
    path: Vertical/Image (3)
    classID: 224
    script: {fileID: 0}
  - curve:
      serializedVersion: 2
      m_Curve:
      - time: 0.75
        value: -1536
        inSlope: 2194.2856
        outSlope: 2194.2856
        tangentMode: 10
      - time: 1.45
        value: 0
        inSlope: 2194.2856
        outSlope: 2194.2856
        tangentMode: 10
      m_PreInfinity: 2
      m_PostInfinity: 2
      m_RotationOrder: 4
    attribute: m_AnchoredPosition.y
    path: Vertical/Image (9)
    classID: 224
    script: {fileID: 0}
  - curve:
      serializedVersion: 2
      m_Curve:
      - time: 1.1
        value: -1536
        inSlope: 2194.286
        outSlope: 2194.286
        tangentMode: 10
      - time: 1.8
        value: 0
        inSlope: 2194.286
        outSlope: 2194.286
        tangentMode: 10
      m_PreInfinity: 2
      m_PostInfinity: 2
      m_RotationOrder: 4
    attribute: m_AnchoredPosition.y
    path: Vertical/Image (11)
    classID: 224
    script: {fileID: 0}
  - curve:
      serializedVersion: 2
      m_Curve:
      - time: 0.95
        value: -1536
        inSlope: 2194.2856
        outSlope: 2194.2856
        tangentMode: 10
      - time: 1.65
        value: 0
        inSlope: 2194.2856
        outSlope: 2194.2856
        tangentMode: 10
      m_PreInfinity: 2
      m_PostInfinity: 2
      m_RotationOrder: 4
    attribute: m_AnchoredPosition.y
    path: Vertical/Image (10)
    classID: 224
    script: {fileID: 0}
  - curve:
      serializedVersion: 2
      m_Curve:
      - time: 0.65
        value: -1536
        inSlope: 2194.2856
        outSlope: 2194.2856
        tangentMode: 10
      - time: 1.35
        value: 0
        inSlope: 2194.2856
        outSlope: 2194.2856
        tangentMode: 10
      m_PreInfinity: 2
      m_PostInfinity: 2
      m_RotationOrder: 4
    attribute: m_AnchoredPosition.y
    path: Vertical/Image (2)
    classID: 224
    script: {fileID: 0}
  - curve:
      serializedVersion: 2
      m_Curve:
      - time: 0.45
        value: -1536
        inSlope: 2194.2856
        outSlope: 2194.2856
        tangentMode: 10
      - time: 1.15
        value: 0
        inSlope: 2194.2856
        outSlope: 2194.2856
        tangentMode: 10
      m_PreInfinity: 2
      m_PostInfinity: 2
      m_RotationOrder: 4
    attribute: m_AnchoredPosition.y
    path: Vertical/Image (4)
    classID: 224
    script: {fileID: 0}
  - curve:
      serializedVersion: 2
      m_Curve:
      - time: 0.9
        value: -1536
        inSlope: 2194.2856
        outSlope: 2194.2856
        tangentMode: 10
      - time: 1.6
        value: 0
        inSlope: 2194.2856
        outSlope: 2194.2856
        tangentMode: 10
      m_PreInfinity: 2
      m_PostInfinity: 2
      m_RotationOrder: 4
    attribute: m_AnchoredPosition.y
    path: Vertical/Image (6)
    classID: 224
    script: {fileID: 0}
  - curve:
      serializedVersion: 2
      m_Curve:
      - time: 1.3
        value: -1536
        inSlope: 2194.2856
        outSlope: 2194.2856
        tangentMode: 10
      - time: 2
        value: 0
        inSlope: 2194.2856
        outSlope: 2194.2856
        tangentMode: 10
      m_PreInfinity: 2
      m_PostInfinity: 2
      m_RotationOrder: 4
    attribute: m_AnchoredPosition.y
    path: Vertical/Image (12)
    classID: 224
    script: {fileID: 0}
  - curve:
      serializedVersion: 2
      m_Curve:
      - time: 0.3
        value: -1536
        inSlope: 2194.2856
        outSlope: 2194.2856
        tangentMode: 10
      - time: 1
        value: 0
        inSlope: 2194.2856
        outSlope: 2194.2856
        tangentMode: 10
      m_PreInfinity: 2
      m_PostInfinity: 2
      m_RotationOrder: 4
    attribute: m_AnchoredPosition.y
    path: Vertical/Image (5)
    classID: 224
    script: {fileID: 0}
  - curve:
      serializedVersion: 2
      m_Curve:
      - time: 0.85
        value: -1536
        inSlope: 2194.286
        outSlope: 2194.286
        tangentMode: 10
      - time: 1.55
        value: 0
        inSlope: 2194.286
        outSlope: 2194.286
        tangentMode: 10
      m_PreInfinity: 2
      m_PostInfinity: 2
      m_RotationOrder: 4
    attribute: m_AnchoredPosition.y
    path: Vertical/Image (8)
    classID: 224
    script: {fileID: 0}
  - curve:
      serializedVersion: 2
      m_Curve:
      - time: 0.65
        value: -1536
        inSlope: 2560
        outSlope: 2560
        tangentMode: 10
      - time: 1.25
        value: 0
        inSlope: 2560
        outSlope: 2560
        tangentMode: 10
      m_PreInfinity: 2
      m_PostInfinity: 2
      m_RotationOrder: 4
    attribute: m_AnchoredPosition.y
    path: Vertical/Image (7)
    classID: 224
    script: {fileID: 0}
  - curve:
      serializedVersion: 2
      m_Curve:
      - time: 0.9
        value: -1536
        inSlope: 2194.2856
        outSlope: 2194.2856
        tangentMode: 10
      - time: 1.6
        value: 0
        inSlope: 2194.2856
        outSlope: 2194.2856
        tangentMode: 10
      m_PreInfinity: 2
      m_PostInfinity: 2
      m_RotationOrder: 4
    attribute: m_AnchoredPosition.y
    path: Vertical/Image (1)
    classID: 224
    script: {fileID: 0}
  - curve:
      serializedVersion: 2
      m_Curve:
      - time: 1.35
        value: -1536
        inSlope: 2194.286
        outSlope: 2194.286
        tangentMode: 10
      - time: 2.05
        value: 0
        inSlope: 2194.286
        outSlope: 2194.286
        tangentMode: 10
      m_PreInfinity: 2
      m_PostInfinity: 2
      m_RotationOrder: 4
    attribute: m_AnchoredPosition.y
    path: Vertical/Image (14)
    classID: 224
    script: {fileID: 0}
  - curve:
      serializedVersion: 2
      m_Curve:
      - time: 1.15
        value: -1536
        inSlope: 2194.2856
        outSlope: 2194.2856
        tangentMode: 10
      - time: 1.85
        value: 0
        inSlope: 2194.2856
        outSlope: 2194.2856
        tangentMode: 10
      m_PreInfinity: 2
      m_PostInfinity: 2
      m_RotationOrder: 4
    attribute: m_AnchoredPosition.y
    path: Vertical/Image (15)
    classID: 224
    script: {fileID: 0}
  - curve:
      serializedVersion: 2
      m_Curve:
      - time: 1.2
        value: -1536
        inSlope: 2194.286
        outSlope: 2194.286
        tangentMode: 10
      - time: 1.9
        value: 0
        inSlope: 2194.286
        outSlope: 2194.286
        tangentMode: 10
      m_PreInfinity: 2
      m_PostInfinity: 2
      m_RotationOrder: 4
    attribute: m_AnchoredPosition.y
    path: Vertical/Image (13)
    classID: 224
    script: {fileID: 0}
  - curve:
      serializedVersion: 2
      m_Curve:
      - time: 0
        value: -831
        inSlope: 0
        outSlope: 0
        tangentMode: 10
      - time: 0.7
        value: -831
        inSlope: 0
        outSlope: 0
        tangentMode: 10
      m_PreInfinity: 2
      m_PostInfinity: 2
      m_RotationOrder: 4
    attribute: m_AnchoredPosition.x
    path: Vertical/Image01
    classID: 224
    script: {fileID: 0}
  - curve:
      serializedVersion: 2
      m_Curve:
      - time: 0
        value: -1536
        inSlope: 2194.2856
        outSlope: 2194.2856
        tangentMode: 10
      - time: 0.7
        value: 0
        inSlope: 2194.2856
        outSlope: 2194.2856
        tangentMode: 10
      m_PreInfinity: 2
      m_PostInfinity: 2
      m_RotationOrder: 4
    attribute: m_AnchoredPosition.y
    path: Vertical/Image01
    classID: 224
    script: {fileID: 0}
  - curve:
      serializedVersion: 2
      m_Curve:
      - time: 0.15
        value: -751
        inSlope: 0
        outSlope: 0
        tangentMode: 10
      - time: 0.85
        value: -751
        inSlope: 0
        outSlope: 0
        tangentMode: 10
      m_PreInfinity: 2
      m_PostInfinity: 2
      m_RotationOrder: 4
    attribute: m_AnchoredPosition.x
    path: Vertical/Image02
    classID: 224
    script: {fileID: 0}
  - curve:
      serializedVersion: 2
      m_Curve:
      - time: 0.15
        value: -1536
        inSlope: 2194.2856
        outSlope: 2194.2856
        tangentMode: 10
      - time: 0.85
        value: 0
        inSlope: 2194.2856
        outSlope: 2194.2856
        tangentMode: 10
      m_PreInfinity: 2
      m_PostInfinity: 2
      m_RotationOrder: 4
    attribute: m_AnchoredPosition.y
    path: Vertical/Image02
    classID: 224
    script: {fileID: 0}
  - curve:
      serializedVersion: 2
      m_Curve:
      - time: 0.2
        value: -630
        inSlope: 0
        outSlope: 0
        tangentMode: 10
      - time: 0.9
        value: -630
        inSlope: 0
        outSlope: 0
        tangentMode: 10
      m_PreInfinity: 2
      m_PostInfinity: 2
      m_RotationOrder: 4
    attribute: m_AnchoredPosition.x
    path: Vertical/Image03
    classID: 224
    script: {fileID: 0}
  - curve:
      serializedVersion: 2
      m_Curve:
      - time: 0.2
        value: -1536
        inSlope: 2194.2856
        outSlope: 2194.2856
        tangentMode: 10
      - time: 0.9
        value: 0
        inSlope: 2194.2856
        outSlope: 2194.2856
        tangentMode: 10
      m_PreInfinity: 2
      m_PostInfinity: 2
      m_RotationOrder: 4
    attribute: m_AnchoredPosition.y
    path: Vertical/Image03
    classID: 224
    script: {fileID: 0}
  - curve:
      serializedVersion: 2
      m_Curve:
      - time: 0.35
        value: -610
        inSlope: 0
        outSlope: 0
        tangentMode: 10
      - time: 1.05
        value: -610
        inSlope: 0
        outSlope: 0
        tangentMode: 10
      m_PreInfinity: 2
      m_PostInfinity: 2
      m_RotationOrder: 4
    attribute: m_AnchoredPosition.x
    path: Vertical/Image04
    classID: 224
    script: {fileID: 0}
  - curve:
      serializedVersion: 2
      m_Curve:
      - time: 0.35
        value: -1536
        inSlope: 2194.286
        outSlope: 2194.286
        tangentMode: 10
      - time: 1.05
        value: 0
        inSlope: 2194.286
        outSlope: 2194.286
        tangentMode: 10
      m_PreInfinity: 2
      m_PostInfinity: 2
      m_RotationOrder: 4
    attribute: m_AnchoredPosition.y
    path: Vertical/Image04
    classID: 224
    script: {fileID: 0}
  - curve:
      serializedVersion: 2
      m_Curve:
      - time: 0.5
        value: -590
        inSlope: 0
        outSlope: 0
        tangentMode: 10
      - time: 1.2
        value: -590
        inSlope: 0
        outSlope: 0
        tangentMode: 10
      m_PreInfinity: 2
      m_PostInfinity: 2
      m_RotationOrder: 4
    attribute: m_AnchoredPosition.x
    path: Vertical/Image05
    classID: 224
    script: {fileID: 0}
  - curve:
      serializedVersion: 2
      m_Curve:
      - time: 0.5
        value: -1536
        inSlope: 2194.2856
        outSlope: 2194.2856
        tangentMode: 10
      - time: 1.2
        value: 0
        inSlope: 2194.2856
        outSlope: 2194.2856
        tangentMode: 10
      m_PreInfinity: 2
      m_PostInfinity: 2
      m_RotationOrder: 4
    attribute: m_AnchoredPosition.y
    path: Vertical/Image05
    classID: 224
    script: {fileID: 0}
  - curve:
      serializedVersion: 2
      m_Curve:
      - time: 0
        value: 0
        inSlope: Infinity
        outSlope: Infinity
        tangentMode: 31
      - time: 1.15
        value: 1
        inSlope: Infinity
        outSlope: Infinity
        tangentMode: 31
      - time: 3.6
        value: 0
        inSlope: Infinity
        outSlope: Infinity
        tangentMode: 31
      m_PreInfinity: 2
      m_PostInfinity: 2
      m_RotationOrder: 4
    attribute: m_IsActive
    path: VR_Company
    classID: 1
    script: {fileID: 0}
  - curve:
      serializedVersion: 2
      m_Curve:
      - time: 1.2
        value: 0
        inSlope: 0
        outSlope: 0
        tangentMode: 10
      - time: 2.1
        value: 0
        inSlope: 0
        outSlope: 0
        tangentMode: 10
      m_PreInfinity: 2
      m_PostInfinity: 2
      m_RotationOrder: 4
    attribute: m_AnchoredPosition.x
    path: VR_Company
    classID: 224
    script: {fileID: 0}
  - curve:
      serializedVersion: 2
      m_Curve:
      - time: 1.2
        value: 250
        inSlope: 22.222225
        outSlope: 22.222225
        tangentMode: 10
      - time: 2.1
        value: 270
        inSlope: 22.222225
        outSlope: 22.222225
        tangentMode: 10
      m_PreInfinity: 2
      m_PostInfinity: 2
      m_RotationOrder: 4
    attribute: m_AnchoredPosition.y
    path: VR_Company
    classID: 224
    script: {fileID: 0}
  - curve:
      serializedVersion: 2
      m_Curve:
      - time: 0
        value: 0
        inSlope: Infinity
        outSlope: Infinity
        tangentMode: 31
      - time: 1.25
        value: 1
        inSlope: Infinity
        outSlope: Infinity
        tangentMode: 31
      - time: 2.1
        value: 1
        inSlope: Infinity
        outSlope: Infinity
        tangentMode: 31
      - time: 3.6
        value: 0
        inSlope: Infinity
        outSlope: Infinity
        tangentMode: 31
      m_PreInfinity: 2
      m_PostInfinity: 2
      m_RotationOrder: 4
    attribute: m_IsActive
    path: Presents
    classID: 1
    script: {fileID: 0}
  - curve:
      serializedVersion: 2
      m_Curve:
      - time: 0
        value: 0
        inSlope: 0
        outSlope: 0
        tangentMode: 10
      - time: 1.25
        value: 0
        inSlope: 0.52631575
        outSlope: 0.52631575
        tangentMode: 10
      - time: 2.2
        value: 1
        inSlope: 0.16917285
        outSlope: 0.16917285
        tangentMode: 10
      - time: 3.6
        value: 0
        inSlope: Infinity
        outSlope: 0
        tangentMode: 7
      m_PreInfinity: 2
      m_PostInfinity: 2
      m_RotationOrder: 4
    attribute: m_Alpha
    path: VR_Chennai
    classID: 225
    script: {fileID: 0}
  - curve:
      serializedVersion: 2
      m_Curve:
      - time: 0
        value: 0
        inSlope: Infinity
        outSlope: Infinity
        tangentMode: 31
      - time: 3.95
        value: 1
        inSlope: Infinity
        outSlope: Infinity
        tangentMode: 31
      - time: 8
        value: 1
        inSlope: Infinity
        outSlope: Infinity
        tangentMode: 31
      m_PreInfinity: 2
      m_PostInfinity: 2
      m_RotationOrder: 4
    attribute: m_IsActive
    path: VRIntro
    classID: 1
    script: {fileID: 0}
  - curve:
      serializedVersion: 2
      m_Curve:
      - time: 4.05
        value: 0
        inSlope: 2.5000024
        outSlope: 2.5000024
        tangentMode: 10
      - time: 4.45
        value: 1
        inSlope: 1.2500012
        outSlope: 1.2500012
        tangentMode: 10
      - time: 7.5
        value: 1
        inSlope: -1
        outSlope: -1
        tangentMode: 10
      - time: 8
        value: 0
        inSlope: -2
        outSlope: -2
        tangentMode: 10
      m_PreInfinity: 2
      m_PostInfinity: 2
      m_RotationOrder: 4
    attribute: m_Alpha
    path: VRIntro
    classID: 225
    script: {fileID: 0}
  m_PPtrCurves: []
  m_SampleRate: 20
  m_WrapMode: 0
  m_Bounds:
    m_Center: {x: 0, y: 0, z: 0}
    m_Extent: {x: 0, y: 0, z: 0}
  m_ClipBindingConstant:
    genericBindings:
    - path: 1152603638
      attribute: 1460864421
      script: {fileID: 0}
      classID: 224
      customType: 0
      isPPtrCurve: 0
    - path: 776225696
      attribute: 1460864421
      script: {fileID: 0}
      classID: 224
      customType: 0
      isPPtrCurve: 0
    - path: 969187763
      attribute: 1460864421
      script: {fileID: 0}
      classID: 224
      customType: 0
      isPPtrCurve: 0
    - path: 1872627253
      attribute: 1460864421
      script: {fileID: 0}
      classID: 224
      customType: 0
      isPPtrCurve: 0
    - path: 1988441972
      attribute: 1460864421
      script: {fileID: 0}
      classID: 224
      customType: 0
      isPPtrCurve: 0
    - path: 1988441972
      attribute: 538195251
      script: {fileID: 0}
      classID: 224
      customType: 0
      isPPtrCurve: 0
    - path: 414298681
      attribute: 538195251
      script: {fileID: 0}
      classID: 224
      customType: 0
      isPPtrCurve: 0
    - path: 3797834419
      attribute: 538195251
      script: {fileID: 0}
      classID: 224
      customType: 0
      isPPtrCurve: 0
    - path: 1311900268
      attribute: 538195251
      script: {fileID: 0}
      classID: 224
      customType: 0
      isPPtrCurve: 0
    - path: 1462317869
      attribute: 538195251
      script: {fileID: 0}
      classID: 224
      customType: 0
      isPPtrCurve: 0
    - path: 27951992
      attribute: 538195251
      script: {fileID: 0}
      classID: 224
      customType: 0
      isPPtrCurve: 0
    - path: 1475355902
      attribute: 538195251
      script: {fileID: 0}
      classID: 224
      customType: 0
      isPPtrCurve: 0
    - path: 1707492988
      attribute: 538195251
      script: {fileID: 0}
      classID: 224
      customType: 0
      isPPtrCurve: 0
    - path: 1696551343
      attribute: 538195251
      script: {fileID: 0}
      classID: 224
      customType: 0
      isPPtrCurve: 0
    - path: 1324029375
      attribute: 538195251
      script: {fileID: 0}
      classID: 224
      customType: 0
      isPPtrCurve: 0
    - path: 4215630834
      attribute: 538195251
      script: {fileID: 0}
      classID: 224
      customType: 0
      isPPtrCurve: 0
    - path: 2094888765
      attribute: 538195251
      script: {fileID: 0}
      classID: 224
      customType: 0
      isPPtrCurve: 0
    - path: 713543867
      attribute: 538195251
      script: {fileID: 0}
      classID: 224
      customType: 0
      isPPtrCurve: 0
    - path: 860223017
      attribute: 538195251
      script: {fileID: 0}
      classID: 224
      customType: 0
      isPPtrCurve: 0
    - path: 710854504
      attribute: 538195251
      script: {fileID: 0}
      classID: 224
      customType: 0
      isPPtrCurve: 0
    - path: 2080661742
      attribute: 538195251
      script: {fileID: 0}
      classID: 224
      customType: 0
      isPPtrCurve: 0
    - path: 145832328
      attribute: 538195251
      script: {fileID: 0}
      classID: 224
      customType: 0
      isPPtrCurve: 0
    - path: 2444781618
      attribute: 538195251
      script: {fileID: 0}
      classID: 224
      customType: 0
      isPPtrCurve: 0
    - path: 3871299748
      attribute: 538195251
      script: {fileID: 0}
      classID: 224
      customType: 0
      isPPtrCurve: 0
    - path: 2027670791
      attribute: 538195251
      script: {fileID: 0}
      classID: 224
      customType: 0
      isPPtrCurve: 0
    - path: 266141073
      attribute: 538195251
      script: {fileID: 0}
      classID: 224
      customType: 0
      isPPtrCurve: 0
    - path: 2588735822
      attribute: 2086281974
      script: {fileID: 0}
      classID: 1
      customType: 0
      isPPtrCurve: 0
    - path: 2588735822
      attribute: 538195251
      script: {fileID: 0}
      classID: 224
      customType: 0
      isPPtrCurve: 0
    - path: 1633063988
      attribute: 2086281974
      script: {fileID: 0}
      classID: 1
      customType: 0
      isPPtrCurve: 0
    - path: 2525817101
      attribute: 1574349066
      script: {fileID: 0}
      classID: 225
      customType: 0
      isPPtrCurve: 0
    - path: 2177480502
      attribute: 2086281974
      script: {fileID: 0}
      classID: 1
      customType: 0
      isPPtrCurve: 0
    - path: 2177480502
      attribute: 1574349066
      script: {fileID: 0}
      classID: 225
      customType: 0
      isPPtrCurve: 0
    - path: 1152603638
      attribute: 538195251
      script: {fileID: 0}
      classID: 224
      customType: 0
      isPPtrCurve: 0
    - path: 776225696
      attribute: 538195251
      script: {fileID: 0}
      classID: 224
      customType: 0
      isPPtrCurve: 0
    - path: 969187763
      attribute: 538195251
      script: {fileID: 0}
      classID: 224
      customType: 0
      isPPtrCurve: 0
    - path: 1872627253
      attribute: 538195251
      script: {fileID: 0}
      classID: 224
      customType: 0
      isPPtrCurve: 0
    - path: 145832328
      attribute: 1460864421
      script: {fileID: 0}
      classID: 224
      customType: 0
      isPPtrCurve: 0
    - path: 2444781618
      attribute: 1460864421
      script: {fileID: 0}
      classID: 224
      customType: 0
      isPPtrCurve: 0
    - path: 3871299748
      attribute: 1460864421
      script: {fileID: 0}
      classID: 224
      customType: 0
      isPPtrCurve: 0
    - path: 2027670791
      attribute: 1460864421
      script: {fileID: 0}
      classID: 224
      customType: 0
      isPPtrCurve: 0
    - path: 266141073
      attribute: 1460864421
      script: {fileID: 0}
      classID: 224
      customType: 0
      isPPtrCurve: 0
    - path: 2588735822
      attribute: 1460864421
      script: {fileID: 0}
      classID: 224
      customType: 0
      isPPtrCurve: 0
    pptrCurveMapping: []
  m_AnimationClipSettings:
    serializedVersion: 2
    m_AdditiveReferencePoseClip: {fileID: 0}
    m_AdditiveReferencePoseTime: 0
    m_StartTime: 0
    m_StopTime: 8
    m_OrientationOffsetY: 0
    m_Level: 0
    m_CycleOffset: 0
    m_HasAdditiveReferencePose: 0
    m_LoopTime: 0
    m_LoopBlend: 0
    m_LoopBlendOrientation: 0
    m_LoopBlendPositionY: 0
    m_LoopBlendPositionXZ: 0
    m_KeepOriginalOrientation: 0
    m_KeepOriginalPositionY: 1
    m_KeepOriginalPositionXZ: 0
    m_HeightFromFeet: 0
    m_Mirror: 0
  m_EditorCurves:
  - curve:
      serializedVersion: 2
      m_Curve:
      - time: 0.3
        value: -2048
        inSlope: 5120
        outSlope: 5120
        tangentMode: 10
      - time: 0.7
        value: -0.00012207031
        inSlope: 5120
        outSlope: 5120
        tangentMode: 10
      m_PreInfinity: 2
      m_PostInfinity: 2
      m_RotationOrder: 4
    attribute: m_AnchoredPosition.x
    path: Horizontal/Image (1)
    classID: 224
    script: {fileID: 0}
  - curve:
      serializedVersion: 2
      m_Curve:
      - time: 1
        value: -2048
        inSlope: 5119.9995
        outSlope: 5119.9995
        tangentMode: 10
      - time: 1.4
        value: -0.00024414062
        inSlope: 5119.9995
        outSlope: 5119.9995
        tangentMode: 10
      m_PreInfinity: 2
      m_PostInfinity: 2
      m_RotationOrder: 4
    attribute: m_AnchoredPosition.x
    path: Horizontal/Image
    classID: 224
    script: {fileID: 0}
  - curve:
      serializedVersion: 2
      m_Curve:
      - time: 0.7
        value: -2048
        inSlope: 4551.111
        outSlope: 4551.111
        tangentMode: 10
      - time: 1.15
        value: -0.00012207031
        inSlope: 4551.111
        outSlope: 4551.111
        tangentMode: 10
      m_PreInfinity: 2
      m_PostInfinity: 2
      m_RotationOrder: 4
    attribute: m_AnchoredPosition.x
    path: Horizontal/Image (4)
    classID: 224
    script: {fileID: 0}
  - curve:
      serializedVersion: 2
      m_Curve:
      - time: 0
        value: -2048
        inSlope: 3413.3333
        outSlope: 3413.3333
        tangentMode: 10
      - time: 0.6
        value: 0.000031189447
        inSlope: 3413.3333
        outSlope: 3413.3333
        tangentMode: 10
      m_PreInfinity: 2
      m_PostInfinity: 2
      m_RotationOrder: 4
    attribute: m_AnchoredPosition.x
    path: Horizontal/Image (2)
    classID: 224
    script: {fileID: 0}
  - curve:
      serializedVersion: 2
      m_Curve:
      - time: 0.5
        value: -2048
        inSlope: 3723.6365
        outSlope: 3723.6365
        tangentMode: 10
      - time: 1.05
        value: -0.00012207031
        inSlope: 3723.6365
        outSlope: 3723.6365
        tangentMode: 10
      m_PreInfinity: 2
      m_PostInfinity: 2
      m_RotationOrder: 4
    attribute: m_AnchoredPosition.x
    path: Horizontal/Image (3)
    classID: 224
    script: {fileID: 0}
  - curve:
      serializedVersion: 2
      m_Curve:
      - time: 0.3
        value: -320.25
        inSlope: 0
        outSlope: 0
        tangentMode: 10
      - time: 0.7
        value: -320.25
        inSlope: 0
        outSlope: 0
        tangentMode: 10
      m_PreInfinity: 2
      m_PostInfinity: 2
      m_RotationOrder: 4
    attribute: m_AnchoredPosition.y
    path: Horizontal/Image (1)
    classID: 224
    script: {fileID: 0}
  - curve:
      serializedVersion: 2
      m_Curve:
      - time: 1
        value: -603
        inSlope: 0
        outSlope: 0
        tangentMode: 10
      - time: 1.4
        value: -603
        inSlope: 0
        outSlope: 0
        tangentMode: 10
      m_PreInfinity: 2
      m_PostInfinity: 2
      m_RotationOrder: 4
    attribute: m_AnchoredPosition.y
    path: Horizontal/Image
    classID: 224
    script: {fileID: 0}
  - curve:
      serializedVersion: 2
      m_Curve:
      - time: 0.7
        value: 534
        inSlope: 0
        outSlope: 0
        tangentMode: 10
      - time: 1.15
        value: 534
        inSlope: 0
        outSlope: 0
        tangentMode: 10
      m_PreInfinity: 2
      m_PostInfinity: 2
      m_RotationOrder: 4
    attribute: m_AnchoredPosition.y
    path: Horizontal/Image (4)
    classID: 224
    script: {fileID: 0}
  - curve:
      serializedVersion: 2
      m_Curve:
      - time: 0
        value: -0.0000076293945
        inSlope: 0
        outSlope: 0
        tangentMode: 10
      - time: 0.6
        value: -0.0000076293945
        inSlope: 0
        outSlope: 0
        tangentMode: 10
      m_PreInfinity: 2
      m_PostInfinity: 2
      m_RotationOrder: 4
    attribute: m_AnchoredPosition.y
    path: Horizontal/Image (2)
    classID: 224
    script: {fileID: 0}
  - curve:
      serializedVersion: 2
      m_Curve:
      - time: 0.5
        value: 593
        inSlope: 0.909091
        outSlope: 0.909091
        tangentMode: 10
      - time: 1.05
        value: 593.5
        inSlope: 0.909091
        outSlope: 0.909091
        tangentMode: 10
      m_PreInfinity: 2
      m_PostInfinity: 2
      m_RotationOrder: 4
    attribute: m_AnchoredPosition.y
    path: Horizontal/Image (3)
    classID: 224
    script: {fileID: 0}
  - curve:
      serializedVersion: 2
      m_Curve:
      - time: 0.1
        value: -1536
        inSlope: 2194.2856
        outSlope: 2194.2856
        tangentMode: 10
      - time: 0.8
        value: 0
        inSlope: 2194.2856
        outSlope: 2194.2856
        tangentMode: 10
      m_PreInfinity: 2
      m_PostInfinity: 2
      m_RotationOrder: 4
    attribute: m_AnchoredPosition.y
    path: Vertical/Image (3)
    classID: 224
    script: {fileID: 0}
  - curve:
      serializedVersion: 2
      m_Curve:
      - time: 0.75
        value: -1536
        inSlope: 2194.2856
        outSlope: 2194.2856
        tangentMode: 10
      - time: 1.45
        value: 0
        inSlope: 2194.2856
        outSlope: 2194.2856
        tangentMode: 10
      m_PreInfinity: 2
      m_PostInfinity: 2
      m_RotationOrder: 4
    attribute: m_AnchoredPosition.y
    path: Vertical/Image (9)
    classID: 224
    script: {fileID: 0}
  - curve:
      serializedVersion: 2
      m_Curve:
      - time: 1.1
        value: -1536
        inSlope: 2194.286
        outSlope: 2194.286
        tangentMode: 10
      - time: 1.8
        value: 0
        inSlope: 2194.286
        outSlope: 2194.286
        tangentMode: 10
      m_PreInfinity: 2
      m_PostInfinity: 2
      m_RotationOrder: 4
    attribute: m_AnchoredPosition.y
    path: Vertical/Image (11)
    classID: 224
    script: {fileID: 0}
  - curve:
      serializedVersion: 2
      m_Curve:
      - time: 0.95
        value: -1536
        inSlope: 2194.2856
        outSlope: 2194.2856
        tangentMode: 10
      - time: 1.65
        value: 0
        inSlope: 2194.2856
        outSlope: 2194.2856
        tangentMode: 10
      m_PreInfinity: 2
      m_PostInfinity: 2
      m_RotationOrder: 4
    attribute: m_AnchoredPosition.y
    path: Vertical/Image (10)
    classID: 224
    script: {fileID: 0}
  - curve:
      serializedVersion: 2
      m_Curve:
      - time: 0.65
        value: -1536
        inSlope: 2194.2856
        outSlope: 2194.2856
        tangentMode: 10
      - time: 1.35
        value: 0
        inSlope: 2194.2856
        outSlope: 2194.2856
        tangentMode: 10
      m_PreInfinity: 2
      m_PostInfinity: 2
      m_RotationOrder: 4
    attribute: m_AnchoredPosition.y
    path: Vertical/Image (2)
    classID: 224
    script: {fileID: 0}
  - curve:
      serializedVersion: 2
      m_Curve:
      - time: 0.45
        value: -1536
        inSlope: 2194.2856
        outSlope: 2194.2856
        tangentMode: 10
      - time: 1.15
        value: 0
        inSlope: 2194.2856
        outSlope: 2194.2856
        tangentMode: 10
      m_PreInfinity: 2
      m_PostInfinity: 2
      m_RotationOrder: 4
    attribute: m_AnchoredPosition.y
    path: Vertical/Image (4)
    classID: 224
    script: {fileID: 0}
  - curve:
      serializedVersion: 2
      m_Curve:
      - time: 0.9
        value: -1536
        inSlope: 2194.2856
        outSlope: 2194.2856
        tangentMode: 10
      - time: 1.6
        value: 0
        inSlope: 2194.2856
        outSlope: 2194.2856
        tangentMode: 10
      m_PreInfinity: 2
      m_PostInfinity: 2
      m_RotationOrder: 4
    attribute: m_AnchoredPosition.y
    path: Vertical/Image (6)
    classID: 224
    script: {fileID: 0}
  - curve:
      serializedVersion: 2
      m_Curve:
      - time: 1.3
        value: -1536
        inSlope: 2194.2856
        outSlope: 2194.2856
        tangentMode: 10
      - time: 2
        value: 0
        inSlope: 2194.2856
        outSlope: 2194.2856
        tangentMode: 10
      m_PreInfinity: 2
      m_PostInfinity: 2
      m_RotationOrder: 4
    attribute: m_AnchoredPosition.y
    path: Vertical/Image (12)
    classID: 224
    script: {fileID: 0}
  - curve:
      serializedVersion: 2
      m_Curve:
      - time: 0.3
        value: -1536
        inSlope: 2194.2856
        outSlope: 2194.2856
        tangentMode: 10
      - time: 1
        value: 0
        inSlope: 2194.2856
        outSlope: 2194.2856
        tangentMode: 10
      m_PreInfinity: 2
      m_PostInfinity: 2
      m_RotationOrder: 4
    attribute: m_AnchoredPosition.y
    path: Vertical/Image (5)
    classID: 224
    script: {fileID: 0}
  - curve:
      serializedVersion: 2
      m_Curve:
      - time: 0.85
        value: -1536
        inSlope: 2194.286
        outSlope: 2194.286
        tangentMode: 10
      - time: 1.55
        value: 0
        inSlope: 2194.286
        outSlope: 2194.286
        tangentMode: 10
      m_PreInfinity: 2
      m_PostInfinity: 2
      m_RotationOrder: 4
    attribute: m_AnchoredPosition.y
    path: Vertical/Image (8)
    classID: 224
    script: {fileID: 0}
  - curve:
      serializedVersion: 2
      m_Curve:
      - time: 0.65
        value: -1536
        inSlope: 2560
        outSlope: 2560
        tangentMode: 10
      - time: 1.25
        value: 0
        inSlope: 2560
        outSlope: 2560
        tangentMode: 10
      m_PreInfinity: 2
      m_PostInfinity: 2
      m_RotationOrder: 4
    attribute: m_AnchoredPosition.y
    path: Vertical/Image (7)
    classID: 224
    script: {fileID: 0}
  - curve:
      serializedVersion: 2
      m_Curve:
      - time: 0.9
        value: -1536
        inSlope: 2194.2856
        outSlope: 2194.2856
        tangentMode: 10
      - time: 1.6
        value: 0
        inSlope: 2194.2856
        outSlope: 2194.2856
        tangentMode: 10
      m_PreInfinity: 2
      m_PostInfinity: 2
      m_RotationOrder: 4
    attribute: m_AnchoredPosition.y
    path: Vertical/Image (1)
    classID: 224
    script: {fileID: 0}
  - curve:
      serializedVersion: 2
      m_Curve:
      - time: 1.35
        value: -1536
        inSlope: 2194.286
        outSlope: 2194.286
        tangentMode: 10
      - time: 2.05
        value: 0
        inSlope: 2194.286
        outSlope: 2194.286
        tangentMode: 10
      m_PreInfinity: 2
      m_PostInfinity: 2
      m_RotationOrder: 4
    attribute: m_AnchoredPosition.y
    path: Vertical/Image (14)
    classID: 224
    script: {fileID: 0}
  - curve:
      serializedVersion: 2
      m_Curve:
      - time: 1.15
        value: -1536
        inSlope: 2194.2856
        outSlope: 2194.2856
        tangentMode: 10
      - time: 1.85
        value: 0
        inSlope: 2194.2856
        outSlope: 2194.2856
        tangentMode: 10
      m_PreInfinity: 2
      m_PostInfinity: 2
      m_RotationOrder: 4
    attribute: m_AnchoredPosition.y
    path: Vertical/Image (15)
    classID: 224
    script: {fileID: 0}
  - curve:
      serializedVersion: 2
      m_Curve:
      - time: 1.2
        value: -1536
        inSlope: 2194.286
        outSlope: 2194.286
        tangentMode: 10
      - time: 1.9
        value: 0
        inSlope: 2194.286
        outSlope: 2194.286
        tangentMode: 10
      m_PreInfinity: 2
      m_PostInfinity: 2
      m_RotationOrder: 4
    attribute: m_AnchoredPosition.y
    path: Vertical/Image (13)
    classID: 224
    script: {fileID: 0}
  - curve:
      serializedVersion: 2
      m_Curve:
      - time: 0
        value: -831
        inSlope: 0
        outSlope: 0
        tangentMode: 10
      - time: 0.7
        value: -831
        inSlope: 0
        outSlope: 0
        tangentMode: 10
      m_PreInfinity: 2
      m_PostInfinity: 2
      m_RotationOrder: 4
    attribute: m_AnchoredPosition.x
    path: Vertical/Image01
    classID: 224
    script: {fileID: 0}
  - curve:
      serializedVersion: 2
      m_Curve:
      - time: 0
        value: -1536
        inSlope: 2194.2856
        outSlope: 2194.2856
        tangentMode: 10
      - time: 0.7
        value: 0
        inSlope: 2194.2856
        outSlope: 2194.2856
        tangentMode: 10
      m_PreInfinity: 2
      m_PostInfinity: 2
      m_RotationOrder: 4
    attribute: m_AnchoredPosition.y
    path: Vertical/Image01
    classID: 224
    script: {fileID: 0}
  - curve:
      serializedVersion: 2
      m_Curve:
      - time: 0.15
        value: -751
        inSlope: 0
        outSlope: 0
        tangentMode: 10
      - time: 0.85
        value: -751
        inSlope: 0
        outSlope: 0
        tangentMode: 10
      m_PreInfinity: 2
      m_PostInfinity: 2
      m_RotationOrder: 4
    attribute: m_AnchoredPosition.x
    path: Vertical/Image02
    classID: 224
    script: {fileID: 0}
  - curve:
      serializedVersion: 2
      m_Curve:
      - time: 0.15
        value: -1536
        inSlope: 2194.2856
        outSlope: 2194.2856
        tangentMode: 10
      - time: 0.85
        value: 0
        inSlope: 2194.2856
        outSlope: 2194.2856
        tangentMode: 10
      m_PreInfinity: 2
      m_PostInfinity: 2
      m_RotationOrder: 4
    attribute: m_AnchoredPosition.y
    path: Vertical/Image02
    classID: 224
    script: {fileID: 0}
  - curve:
      serializedVersion: 2
      m_Curve:
      - time: 0.2
        value: -630
        inSlope: 0
        outSlope: 0
        tangentMode: 10
      - time: 0.9
        value: -630
        inSlope: 0
        outSlope: 0
        tangentMode: 10
      m_PreInfinity: 2
      m_PostInfinity: 2
      m_RotationOrder: 4
    attribute: m_AnchoredPosition.x
    path: Vertical/Image03
    classID: 224
    script: {fileID: 0}
  - curve:
      serializedVersion: 2
      m_Curve:
      - time: 0.2
        value: -1536
        inSlope: 2194.2856
        outSlope: 2194.2856
        tangentMode: 10
      - time: 0.9
        value: 0
        inSlope: 2194.2856
        outSlope: 2194.2856
        tangentMode: 10
      m_PreInfinity: 2
      m_PostInfinity: 2
      m_RotationOrder: 4
    attribute: m_AnchoredPosition.y
    path: Vertical/Image03
    classID: 224
    script: {fileID: 0}
  - curve:
      serializedVersion: 2
      m_Curve:
      - time: 0.35
        value: -610
        inSlope: 0
        outSlope: 0
        tangentMode: 10
      - time: 1.05
        value: -610
        inSlope: 0
        outSlope: 0
        tangentMode: 10
      m_PreInfinity: 2
      m_PostInfinity: 2
      m_RotationOrder: 4
    attribute: m_AnchoredPosition.x
    path: Vertical/Image04
    classID: 224
    script: {fileID: 0}
  - curve:
      serializedVersion: 2
      m_Curve:
      - time: 0.35
        value: -1536
        inSlope: 2194.286
        outSlope: 2194.286
        tangentMode: 10
      - time: 1.05
        value: 0
        inSlope: 2194.286
        outSlope: 2194.286
        tangentMode: 10
      m_PreInfinity: 2
      m_PostInfinity: 2
      m_RotationOrder: 4
    attribute: m_AnchoredPosition.y
    path: Vertical/Image04
    classID: 224
    script: {fileID: 0}
  - curve:
      serializedVersion: 2
      m_Curve:
      - time: 0.5
        value: -590
        inSlope: 0
        outSlope: 0
        tangentMode: 10
      - time: 1.2
        value: -590
        inSlope: 0
        outSlope: 0
        tangentMode: 10
      m_PreInfinity: 2
      m_PostInfinity: 2
      m_RotationOrder: 4
    attribute: m_AnchoredPosition.x
    path: Vertical/Image05
    classID: 224
    script: {fileID: 0}
  - curve:
      serializedVersion: 2
      m_Curve:
      - time: 0.5
        value: -1536
        inSlope: 2194.2856
        outSlope: 2194.2856
        tangentMode: 10
      - time: 1.2
        value: 0
        inSlope: 2194.2856
        outSlope: 2194.2856
        tangentMode: 10
      m_PreInfinity: 2
      m_PostInfinity: 2
      m_RotationOrder: 4
    attribute: m_AnchoredPosition.y
    path: Vertical/Image05
    classID: 224
    script: {fileID: 0}
  - curve:
      serializedVersion: 2
      m_Curve:
      - time: 0
        value: 0
        inSlope: Infinity
        outSlope: Infinity
        tangentMode: 31
      - time: 1.15
        value: 1
        inSlope: Infinity
        outSlope: Infinity
        tangentMode: 31
      - time: 3.6
        value: 0
        inSlope: Infinity
        outSlope: Infinity
        tangentMode: 31
      m_PreInfinity: 2
      m_PostInfinity: 2
      m_RotationOrder: 4
    attribute: m_IsActive
    path: VR_Company
    classID: 1
    script: {fileID: 0}
  - curve:
      serializedVersion: 2
      m_Curve:
      - time: 1.2
        value: 0
        inSlope: 0
        outSlope: 0
        tangentMode: 10
      - time: 2.1
        value: 0
        inSlope: 0
        outSlope: 0
        tangentMode: 10
      m_PreInfinity: 2
      m_PostInfinity: 2
      m_RotationOrder: 4
    attribute: m_AnchoredPosition.x
    path: VR_Company
    classID: 224
    script: {fileID: 0}
  - curve:
      serializedVersion: 2
      m_Curve:
      - time: 1.2
        value: 250
        inSlope: 22.222225
        outSlope: 22.222225
        tangentMode: 10
      - time: 2.1
        value: 270
        inSlope: 22.222225
        outSlope: 22.222225
        tangentMode: 10
      m_PreInfinity: 2
      m_PostInfinity: 2
      m_RotationOrder: 4
    attribute: m_AnchoredPosition.y
    path: VR_Company
    classID: 224
    script: {fileID: 0}
  - curve:
      serializedVersion: 2
      m_Curve:
      - time: 0
        value: 0
        inSlope: Infinity
        outSlope: Infinity
        tangentMode: 31
      - time: 1.25
        value: 1
        inSlope: Infinity
        outSlope: Infinity
        tangentMode: 31
      - time: 2.1
        value: 1
        inSlope: Infinity
        outSlope: Infinity
        tangentMode: 31
      - time: 3.6
        value: 0
        inSlope: Infinity
        outSlope: Infinity
        tangentMode: 31
      m_PreInfinity: 2
      m_PostInfinity: 2
      m_RotationOrder: 4
    attribute: m_IsActive
    path: Presents
    classID: 1
    script: {fileID: 0}
  - curve:
      serializedVersion: 2
      m_Curve:
      - time: 0
        value: 0
        inSlope: 0
        outSlope: 0
        tangentMode: 10
      - time: 1.25
        value: 0
        inSlope: 0.52631575
        outSlope: 0.52631575
        tangentMode: 10
      - time: 2.2
        value: 1
        inSlope: 0.16917285
        outSlope: 0.16917285
        tangentMode: 10
      - time: 3.6
        value: 0
        inSlope: Infinity
        outSlope: 0
        tangentMode: 7
      m_PreInfinity: 2
      m_PostInfinity: 2
      m_RotationOrder: 4
    attribute: m_Alpha
    path: VR_Chennai
    classID: 225
    script: {fileID: 0}
  - curve:
      serializedVersion: 2
      m_Curve:
      - time: 0
        value: 0
        inSlope: Infinity
        outSlope: Infinity
        tangentMode: 31
      - time: 3.95
        value: 1
        inSlope: Infinity
        outSlope: Infinity
        tangentMode: 31
      - time: 8
        value: 1
        inSlope: Infinity
        outSlope: Infinity
        tangentMode: 31
      m_PreInfinity: 2
      m_PostInfinity: 2
      m_RotationOrder: 4
    attribute: m_IsActive
    path: VRIntro
    classID: 1
    script: {fileID: 0}
  - curve:
      serializedVersion: 2
      m_Curve:
      - time: 4.05
        value: 0
        inSlope: 2.5000024
        outSlope: 2.5000024
        tangentMode: 10
      - time: 4.45
        value: 1
        inSlope: 1.2500012
        outSlope: 1.2500012
        tangentMode: 10
      - time: 7.5
        value: 1
        inSlope: -1
        outSlope: -1
        tangentMode: 10
      - time: 8
        value: 0
        inSlope: -2
        outSlope: -2
        tangentMode: 10
      m_PreInfinity: 2
      m_PostInfinity: 2
      m_RotationOrder: 4
    attribute: m_Alpha
    path: VRIntro
    classID: 225
    script: {fileID: 0}
  m_EulerEditorCurves: []
  m_HasGenericRootTransform: 0
  m_HasMotionFloatCurves: 0
  m_GenerateMotionCurves: 0
  m_Events:
  - time: 8
    functionName: AnimFinish
    data: 
    objectReferenceParameter: {fileID: 0}
    floatParameter: 0
    intParameter: 0
    messageOptions: 0
