%YAML 1.1
%TAG !u! tag:unity3d.com,2011:
--- !u!21 &2100000
Material:
  serializedVersion: 6
  m_ObjectHideFlags: 0
  m_PrefabParentObject: {fileID: 0}
  m_PrefabInternal: {fileID: 0}
  m_Name: alderbranches
  m_Shader: {fileID: 51, guid: 0000000000000000f000000000000000, type: 0}
  m_ShaderKeywords: 
  m_LightmapFlags: 5
  m_CustomRenderQueue: -1
  stringTagMap: {}
  m_SavedProperties:
    serializedVersion: 2
    m_TexEnvs:
      data:
        first:
          name: _MainTex
        second:
          m_Texture: {fileID: 2800000, guid: d72b881dbd110e38a00062d88f962b59, type: 3}
          m_Scale: {x: 1, y: 1}
          m_Offset: {x: 0, y: 0}
    m_Floats:
      data:
        first:
          name: _Cutoff
        second: 0.5490566
      data:
        first:
          name: _SquashAmount
        second: 1
      data:
        first:
          name: _BaseLight
        second: 0.10377359
      data:
        first:
          name: _AO
        second: 1.0377358
      data:
        first:
          name: _Occlusion
        second: 5.471698
    m_Colors:
      data:
        first:
          name: _Scale
        second: {r: 1, g: 1, b: 1, a: 1}
      data:
        first:
          name: _Color
        second: {r: 0.5566609, g: 0.72794116, b: 0.5932795, a: 1}
      data:
        first:
          name: _MainTex_ST
        second: {r: 1, g: 1, b: 0, a: 0}
--- !u!1002 &2100001
EditorExtensionImpl:
  serializedVersion: 6
